1910,1926
1921,1971
1973,1991
1912,1956
1924,1941
1919,1931
1946,1961
1930,1991
1947,1993
1948,1966
1900,1972
1937,1966
1953,1967
1941,1964
1939,1959
1950,1975
1909,1932
1954,1972
1924,1974
1958,1986
1980,1997
1936,1962
1938,1955
1975,1995
1931,1997
1980,1999
1907,1929
1933,1974
1907,1985
1915,1930
1964,1981
1940,1962
1935,1984
1929,1944
1936,1958
1943,1977
1948,1973
1932,1972
1958,1969
1917,1939
1953,1991
1937,1949
1976,1992
1978,1997
1932,1945
1905,1925
1903,1954
1952,1994
1943,1999
1971,1994
1905,1957
1932,1977
1978,1992
1938,1968
1964,1985
1962,1993
1919,1964
1944,1979
1949,1973
1959,1988
1976,1990
1926,1978
1939,1983
1979,2000
1941,1966
1913,1956
1915,1942
1960,1987
1979,1995
1927,1977
1942,1971
1955,2000
1978,1990
1964,1984
1906,1923
1916,2000
1928,1982
1915,1982
1976,1994
1980,1997
1930,1976
1903,1944
1923,1961
1956,1979
1913,1957
1917,1951
1921,1970
1958,1987
1929,1988
1975,1985
1932,1972
1958,1995
1949,1968
1952,1978
1901,1944
1955,1983
1953,1986
1913,1984
1946,1972
1941,1953
1956,1966
1966,1979
1941,2000
1943,1992
1946,1973
1912,1996
1968,1983
1909,1987
1955,1975
1971,1992
1945,1976
1926,1954
1957,2000
1978,1988
1906,1968
1911,1975
1944,1966
1934,1948
1900,1987
1966,1986
1973,1991
1967,1995
1936,1950
1969,1996
1961,1990
1938,1990
1974,1998
1930,1971
1951,1980
1916,1953
1940,1951
1927,1983
1924,1951
1908,1955
1901,1927
1910,1932
1916,1951
1973,1983
1956,1999
1918,1982
1944,1978
1958,1976
1914,1944
1934,1997
1968,1997
1947,1973
1932,1988
1965,1976
1927,1948
1909,1982
1923,1977
1948,1991
1950,1961
1906,1933
1924,1953
1917,1975
1934,1947
1975,1989
1959,1985
1908,1938
1913,1989
1924,1947
1944,1954
1959,1996
1928,1949
1929,1987
1979,1990
1938,1963
1969,1995
1980,1996
1955,1984
1967,1997
1910,1927
1929,1957
1965,1982
1948,1973
1975,1999
1978,1993
1901,1978
1968,1997
1968,1999
1950,1997
1928,1940
1974,1995
1951,1986
1962,1988
1959,1976
1922,1958
1970,2000
1906,1962
1918,1975
1964,1990
1918,1986
1939,1963
1918,1930
1950,1997
1905,1979
1924,1983
1926,1997